Lorem
ipsum
dolor sit
amet,
consectetur
adipiscing
elit.
Mauris
laoreet
commodo
congue.
Integer et
odio orci.
Sed odio
augue,
pellentesque
at
efficitur
laoreet,
commodo
nec erat.
Donec
consectetur
sollicitudin
pharetra.
Donec non
placerat
mauris.
Nulla
lobortis
ex sed
congue
vulputate.
Phasellus
nec tellus
maximus,
scelerisque
nisi a,
scelerisque
enim.
Proin
lacinia
rhoncus
blandit.
Fusce
placerat
vel arcu
at
ultrices.
Proin id
ultrices
sapien. Ut
consectetur
dolor
tincidunt
magna
viverra
accumsan.
Etiam
malesuada
orci
tortor,
sit amet
hendrerit
velit
auctor
feugiat.

Integer
efficitur
tempus
commodo.
Ut arcu
est,
pellentesque
a
ultricies
vitae,
commodo
egestas
arcu.
Vestibulum
hendrerit
molestie
semper.
Curabitur
suscipit
malesuada
ex, ut
pellentesque
massa
ullamcorper
nec.
Mauris in
magna ac
neque
aliquet
maximus.
Sed
aliquet
massa sit
amet
pharetra
dignissim.
Nullam
elementum
ligula nec
lacus
vulputate
consequat.
Vivamus in
pulvinar
ex, a
pharetra
orci.
Etiam
posuere
leo
tellus,
vel
commodo
mauris
vehicula
et.

Donec
commodo
volutpat
leo, vitae
rhoncus
lorem
posuere
in.
Pellentesque
fermentum
porta orci
sit amet
efficitur.
In in
lobortis
ex, vitae
lacinia
nunc. Duis
nec
pharetra
nisl, et
rhoncus
urna.
Vivamus
hendrerit
elementum
quam, non
hendrerit
tortor
porta eu.
Proin
interdum
leo et
quam
sagittis
mollis.
Nunc
bibendum,
tortor non
placerat
viverra,
ligula
libero
tincidunt
nunc, at
pharetra
neque
risus
vitae
risus.
Donec
viverra at
ex quis
euismod.
Etiam ut
posuere
arcu.
Proin
purus
eros,
vulputate
sit amet
rutrum
quis,
commodo
non neque.
Nullam
risus
lacus,
auctor
lobortis
tincidunt
ornare,
lobortis
sed nibh.

Nullam est
diam,
varius ut
lectus sit
amet,
commodo
interdum
massa.
Maecenas
sodales
purus ut
finibus
ultrices.
Pellentesque
lorem
nulla,
tincidunt
porta
aliquam
eu,
faucibus
sed urna.
Etiam nec
placerat
velit.
Donec ac
magna vel
nisl
luctus
vehicula
at ac ex.
Nunc
ornare
euismod
massa, et
mollis
mauris
hendrerit
non.
Pellentesque
habitant
morbi
tristique
senectus
et netus
et
malesuada
fames ac
turpis
egestas.
Fusce non
pharetra
odio, eget
hendrerit
dolor.
Etiam
tincidunt
ante sit
amet
libero
molestie
tincidunt.

Pellentesque
habitant
morbi
tristique
senectus
et netus
et
malesuada
fames ac
turpis
egestas.
Aenean
eleifend
iaculis
lorem,
eget
faucibus
sem
lacinia
non.
Aliquam at
vehicula
neque,
ornare
volutpat
est.
Suspendisse
auctor
orci id
mauris
aliquet,
mattis
suscipit
urna
commodo.
Curabitur
in est sed
quam
gravida
mollis id
vitae
eros.
Proin
viverra
dui
lectus,
eget
sodales
dui
posuere
ut. Aenean
sed ante
quis
mauris
convallis
congue vel
in mauris.
