nonmathematician cacomorphia aluminite awaruite
transnormal dezinc orogenic
mollifier Ornithomimus
spongophore mythopoesy misky superfulfillment
indefiniteness ropes Abietineae Milesian unthronged
supercrescent Trogoniformes Masarididae
quadriliteral eh coinstantaneously prepontile saltary
crayfish pandal autoallogamous cyclostome governing
eucalypteol diaspidine turbines falseness triazo
Ananism inexplicability aconic Aganice
eucryphiaceous
Marsha
obtainable odontocetous Tulipa lambsdown nonneutral
amang stockpot maladventure extendible linguatuline
chaotical hotbed
empiric fillercap underservice detrude tenemental
underyield anguishous unbridling nonslaveholding
preally Pareiasauri ogived Mojo unpugnacious
countersleight Apocynum pseudoprophetical sweepboard
interconnection puppet
dirigent sorehon
numberous ghostlify interjacent unjumbled
suprasensual Guanche
unconcludingness
Oryza
apparelment
Ronsardism jackleg thyreosis prewarn Paulianist
vigilantness prostomium corps Stakhanovism gastrolytic
recessive flyspeck reperplex saxonite
calathidium unbirdly scription
cereal nighness autonomist hoodshyness switcher
transcolor taipo alkali unswaddled lunette
paedogenetic piercingly stateside penacute pargeting
elective urbanist darnel methodless movableness
incalculableness extraparliamentary obsidious
plasticity Merula nervule
straucht nosy scolding Sunnism homoeomerian abidi
idiotry homograph tilewright
whiteblow unresultive divinator rhomboidly orison
woolsorter hypochondriacism Aloysius snup
losable siphonorhinal cathisma antiserum Arctos
Nipponize antibiont unsulliedly penial taurian guib
Bauhinia improvisatory scourgingly pinchcock
excitomuscular bathing retrocoupler eagerness
sleeveband oquassa variatious ganglial tachylalia
serotherapeutics toitish sternoclidomastoid Euglena
narsinga phyllomania pyrites extrapolar Beothuk
webwork actinogram greedless flammulation
Coryphaenidae antiracer
limnologist gonne intertwistingly
remindal callidity acetate unneighborliness transpose
brandling radiolucency
checker Dunkard profilograph cyclospermous maitlandite
soddite frightfully sublimator mund carbamyl mahogany
aquincubital buccinatory
