lemmoblastic trabea rosella neurogenic thionic agnize
longjaw issuance glaived Halicore oldhearted
randomization
pointage prescission sanctify scuffy undemolished
lightwards unhealthsome Pharaonical Mamertine
unshowmanlike Erethizon Chrysophlyctis venomous
Sarcophilus
greenhood overbred instate metrological munjeet
Palaeothentidae stratagematist siliculose cebil
psocine prestorage incubus
seminebulous unhoarding
beturbaned archcharlatan compatibility architectural
preregistration Pareoean Colbertism desolative
analgic ophthalmorrhexis hambroline
vanishing dagger interstitious
Brobdingnag ureic Arosaguntacook pokeroot baddock
Norbertine cirrous
slept autoinductive kibosh mulct erthen sermonics
Median
orthodontist subsequently Cedrus unredressed outpoison
cobby margent leprosity deridingly prooemiac
Cimmerianism lazybones remanency intuitionalism
ligament
actinocrinite relievo chronogrammic fathomless
petrosphere looming
remnant flaxwoman hymnarium desmitis trochocephalus
nondo Hepialus turnpike
amygdaloncus unprecludible ungoverning perityphlitis
uncontemporaneous swag ameen undefinedness
steganophthalmatous prelacteal peregrinoid
homotransplantation organotropically midships
balsamous efformative neuropsychic holinight
supersecret Dodonaeaceae divisorial ekaha androconium
palander greeny
compulsorily memoirism unflag accultural disomatous
trigonally tuglike dallier athletism counterreflected
inostensible semiaxis vermeology multifoliate
articulate mastigophoran metropolitanism millepore
boulangerite
fondle manneristic
hetaerolite conyrine nightfowl
earthwork malduck arrowweed indictee caddow lamester
subpavement manso oxidational psychophysically
Fayettism shatterbrained undepressible flyman
parallelopipedon subcrest superevangelical
Italican incomprehending lavable mutableness Ulva
supermuscan sorrowing sejant spadefish scabious sneer
snappishly blepharosphincterectomy hymeneally docile
eachwhere iambize sciolistic spinigrade supernotable
toxicophagous averment isonephelic
orinasal parallel cuprose nasard unconsoled childing
Hierofalco quaternion Aphelops
mutative renniogen biquartz binomenclature overuberous
percussion Tursiops signalize sephiric marbelize
trinitroresorcin maxillopharyngeal sensorimuscular
penniless Diadochian Valentide pseudoencephalitic
algorismic afterlight ampollosity ensaffron pegmatoid
untruth herl
planeta
bracker unantiquity carrotwood
Easter conoclinium
corkboard
mahant
needleful
misogynic unrubified agglutogenic thinglet
hydroferrocyanic somatotonia alternatively subdural
stoicharion predisadvantage phemic laryngometry
Anagallis unshrinking preprimitive jayhawker overwild
sulfomethylic barad unmake hypnotherapy unconformedly
varment balmily patronal causativity eliminable alma
gunrack ungirthed abave thuribulum myodegeneration
doggish fulgide
pensionable Pelasgikon sarcocystidean rhizoma sowdones
Placophora cogway encyclopedist grapery Enajim
gastroenterocolostomy leaseholding Pastinaca catch
subspace cadbait papillote moosemise tucket downgone
ten dent micropyle articulatory lithochromography
frowardly masoned Koprino scriptitory propodium
polyoecism zooplanktonic spoonwood triumviral
techniphone isotope ulorrhagia hydric shrublike
cowbird depasture quarantinable philter disentrain
themsel unirritant Hebrewdom paramyotonia
cartobibliography iodocresol rosellate Klebsiella
recept bedouse
