import tizwr.h.ba.ndevk.Svatw;

import bpxnx.yf.wzhuux.kbug.m.fubca.M;
import c.oz.Sxd;
import g.Fipudk;
import h.X;
import k.r.qubux.Nq;
import oqzily.eqj.hnlmh.xa.sm.bifvnj.F;
import xqil.j.idjlr.Euezd;
import ygwq.qxtoai.hykzz.cxzoly.Xjpmeo;
import yiauwe.Ar;

import c.dtard.xfh.putn.Roxz;
import cl.hwbwn.desg.y.qdlr.Wxddo;
import hdf.ldwui.qpivj.ky.delyok.anrmx.Hqzz;
import iiokb.tilgxe.way.l.zvs.Er;
import lige.uyk.tgudu.Mumpe;
import psh.tfsenp.boirnk.sqgecv.Czv;
import qe.emsp.oiq.sdvt.mxmpeq.wkl.Pdglkc;
import utvmhj.fzr.Rnvdu;
import uwulb.r.uux.dyv.ns.Q;

import kscz.Qyz;

public class RandomC {
  // import
  public void import() {
  }
}
