import aqk.i.crdlaq.Sinkpo;
import etwhz.Dhqlp;
import hidn.uzsyu.gnnbtq.wqz.Lk;
import hlj.sjsv.tyf.ocleq.witrbg.Gkndfs;
import io.w.Rzhqis;
import lahcb.bj.plc.yxpj.Ojqmxb;
import ngv.fkduv.o.olczh.s.esuv.Vq;
import nyonxo.djc.oo.Qyuofz;
import rohxi.p.Aaii;
import ze.rpsrsk.outo.zp.Vh;

import cmodid.pgrdo.lv.geotqb.G;
import nhcgey.vkmud.wx.ljqj.w.vc.Ob;
import ojys.rzvil.tb.Lylkfn;
import pajvec.ytbwb.o.sqx.tqxoj.zumals.Eohfqw;
import vzdv.vxkdbw.v.guyoe.Hsoieb;

public class RandomI {
  // import
  public void import() {
  }
}
